{
  "name": "Genesis NFI",
  "symbol": "Genesis Invitation",
  "image": "0.png",
  "properties":
  {
    "files": [
    {
      "uri": "0.png",
      "type": "image/png"
    }],
    "category": "image",
    "creators": [{"address" : "ESbm5twosKASpZSAKYJVqpPsAKP2obmscBt1CgNn82BU", "share" : 100}]
  },
  "description": "",
  "seller_fee_basis_points": 350,
  "collection":
  {"name" : "NFI", "family" : "NFI"}
}
