{
  "name": "3",
  "symbol": "Doge",
  "image": "2.png",
  "properties":
  {
    "files": [
    {
      "uri": "2.png",
      "type": "image/png"
    }],
    "category": "image",
    "creators": [{"address" : "ESbm5twosKASpZSAKYJVqpPsAKP2obmscBt1CgNn82BU", "share" : 100}]
  },
  "description": "",
  "seller_fee_basis_points": 500,
  "attributes": [
  {
    "trait_type": "background",
    "value": "light-pink"
  },
  {
    "trait_type": "eyes",
    "value": "star-eyes"
  },
  {
    "trait_type": "mouth",
    "value": "triangle-mouth"
  },
  {
    "trait_type": "face",
    "value": "sun-face"
  }],
  "collection":
  {"name" : "DOGE", "family" : "DOGE"}
}
